2.727563058090210006e+02
2.791626974105835046e+01
1.865247323989868278e+01
1.684925600051879968e+01
1.581327005386352624e+01
1.476358044624328691e+01
1.411232780456542990e+01
1.363517371177673354e+01
1.312206398010253849e+01
1.256228861808776820e+01
1.224374322891235423e+01
1.188468191146850650e+01
1.157705000877380286e+01
1.127514548301696706e+01
1.100311879158019934e+01
1.074279252052307143e+01
1.047167218208313066e+01
1.034642602920532184e+01
1.010395952224731531e+01
1.000477624893188455e+01
9.740525417327880575e+00
9.574042358398436647e+00
9.517973375320433860e+00
9.326092939376831481e+00
9.328133249282837269e+00
9.130259604454041167e+00
8.987561969757079439e+00
8.964748044013976624e+00
8.786898937225341655e+00
8.610255584716796307e+00
8.615190324783325693e+00
8.479398474693297771e+00
8.375389952659606507e+00
8.266982531547546031e+00
8.202782716751098491e+00
8.150380005836487030e+00
8.124233331680297709e+00
8.174473824501037100e+00
8.078012199401856108e+00
8.016329050064086914e+00
8.013759498596192188e+00
7.865488743782043102e+00
7.871641960144042827e+00
7.823428082466125311e+00
7.825379424095153524e+00
7.734566316604614578e+00
7.685613203048705877e+00
7.683908362388610414e+00
7.666486339569091868e+00
7.642672791481017747e+00
